TOPMed Analysis Workshop
…
glimpse(aggregated_variants)

## Observations: 794
## Variables: 5
## $ group_id   <chr> "ENSG00000231565.1", "ENSG00000237299.1", "ENSG0000...
## $ chromosome <chr> "22", "22", "22", "22", "22", "22", "22", "22", "22...
## $ position   <chr> "16365024", "16425814", "16425814", "16926604", "16...
## $ ref        <chr> "A", "C", "C", "C", "C", "G", "G", "C", "G", "A", "...
## $ alt        <chr> "C", "T", "T", "T", "T", "A", "A", "T", "A", "G", "...

We can do things like counting how many genic units we’re using:

distinct(as.tibble(aggregated_variants$group_id))

## # A tibble: 270 x 1
##                 value
##                 <chr>
##  1  ENSG00000231565.1
##  2  ENSG00000237299.1
##  3  ENSG00000235759.1
##  4  ENSG00000227367.1
##  5 ENSG00000100181.17
##  6  ENSG00000172967.7
##  7  ENSG00000215568.3
##  8  ENSG00000237438.2
##  9 ENSG00000093072.11
## 10  ENSG00000241832.1
## # ... with 260 more rows
…
